HLTRMakerAlg.HLTResultMTMaker.Serialiser    0     DEBUG Type xAOD::TrigCompositeContainer_v1#L1MU
HLTRMakerAlg.HLTResultMTMaker.Serialiser    0     DEBUG Transient type xAOD::TrigCompositeContainer persistent type xAOD::TrigCompositeContainer_v1 will be written to 1 result ROBFragments with IDs: [0]
HLTRMakerAlg.HLTResultMTMaker.Serialiser    0     DEBUG Type xAOD::TrigCompositeAuxContainer_v2#L1MU.
HLTRMakerAlg.HLTResultMTMaker.Serialiser    0     DEBUG Transient type xAOD::TrigCompositeAuxContainer persistent type xAOD::TrigCompositeAuxContainer_v2 will be written to 1 result ROBFragments with IDs: [0]
HLTRMakerAlg.HLTResultMTMaker.Serialiser    0     DEBUG Type xAOD::TrigCompositeContainer_v1#pebInputMaker_pebtestthree_from_Filter_Step3_pebtestthree_0_from_PEBInfoWriterAlg_dataScoutingElectronTest_from_pebInputMaker_dataScoutingElectronTest_from_Filter_Step3_dataScoutingElectronTest_0_from_TrigL2ElectronHypoAlgMT_from_l2ElectronViewsMaker_from_Filter_Step2_etcut_0_from_EleL2CaloHypo_from_fastCaloViewsMaker_from_Filter_Step1_etcut_0_from_L1EM
HLTRMakerAlg.HLTResultMTMaker.Serialiser    0     DEBUG Transient type xAOD::TrigCompositeContainer persistent type xAOD::TrigCompositeContainer_v1 will be written to 1 result ROBFragments with IDs: [0]
HLTRMakerAlg.HLTResultMTMaker.Serialiser    0     DEBUG Type xAOD::TrigCompositeAuxContainer_v2#pebInputMaker_pebtestthree_from_Filter_Step3_pebtestthree_0_from_PEBInfoWriterAlg_dataScoutingElectronTest_from_pebInputMaker_dataScoutingElectronTest_from_Filter_Step3_dataScoutingElectronTest_0_from_TrigL2ElectronHypoAlgMT_from_l2ElectronViewsMaker_from_Filter_Step2_etcut_0_from_EleL2CaloHypo_from_fastCaloViewsMaker_from_Filter_Step1_etcut_0_from_L1EM.
HLTRMakerAlg.HLTResultMTMaker.Serialiser    0     DEBUG Transient type xAOD::TrigCompositeAuxContainer persistent type xAOD::TrigCompositeAuxContainer_v2 will be written to 1 result ROBFragments with IDs: [0]
HLTRMakerAlg.HLTResultMTMaker.Serialiser    0     DEBUG Type xAOD::TrigCompositeContainer_v1#PEBInfoWriterAlg_pebtestthree_from_pebInputMaker_pebtestthree_from_Filter_Step3_pebtestthree_0_from_PEBInfoWriterAlg_dataScoutingElectronTest_from_pebInputMaker_dataScoutingElectronTest_from_Filter_Step3_dataScoutingElectronTest_0_from_TrigL2ElectronHypoAlgMT_from_l2ElectronViewsMaker_from_Filter_Step2_etcut_0_from_EleL2CaloHypo_from_fastCaloViewsMaker_from_Filter_Step1_etcut_0_from_L1EM
HLTRMakerAlg.HLTResultMTMaker.Serialiser    0     DEBUG Transient type xAOD::TrigCompositeContainer persistent type xAOD::TrigCompositeContainer_v1 will be written to 1 result ROBFragments with IDs: [0]
HLTRMakerAlg.HLTResultMTMaker.Serialiser    0     DEBUG Type xAOD::TrigCompositeAuxContainer_v2#PEBInfoWriterAlg_pebtestthree_from_pebInputMaker_pebtestthree_from_Filter_Step3_pebtestthree_0_from_PEBInfoWriterAlg_dataScoutingElectronTest_from_pebInputMaker_dataScoutingElectronTest_from_Filter_Step3_dataScoutingElectronTest_0_from_TrigL2ElectronHypoAlgMT_from_l2ElectronViewsMaker_from_Filter_Step2_etcut_0_from_EleL2CaloHypo_from_fastCaloViewsMaker_from_Filter_Step1_etcut_0_from_L1EM.
HLTRMakerAlg.HLTResultMTMaker.Serialiser    0     DEBUG Transient type xAOD::TrigCompositeAuxContainer persistent type xAOD::TrigCompositeAuxContainer_v2 will be written to 1 result ROBFragments with IDs: [0]
HLTRMakerAlg.HLTResultMTMaker.Serialiser    0     DEBUG Type xAOD::TrigCompositeContainer_v1#l2ElectronViewsMaker_from_Filter_Step2_etcut_0_from_EleL2CaloHypo_from_fastCaloViewsMaker_from_Filter_Step1_etcut_0_from_L1EM
HLTRMakerAlg.HLTResultMTMaker.Serialiser    0     DEBUG Transient type xAOD::TrigCompositeContainer persistent type xAOD::TrigCompositeContainer_v1 will be written to 1 result ROBFragments with IDs: [0]
HLTRMakerAlg.HLTResultMTMaker.Serialiser    0     DEBUG Type xAOD::TrigCompositeAuxContainer_v2#l2ElectronViewsMaker_from_Filter_Step2_etcut_0_from_EleL2CaloHypo_from_fastCaloViewsMaker_from_Filter_Step1_etcut_0_from_L1EM.
HLTRMakerAlg.HLTResultMTMaker.Serialiser    0     DEBUG Transient type xAOD::TrigCompositeAuxContainer persistent type xAOD::TrigCompositeAuxContainer_v2 will be written to 1 result ROBFragments with IDs: [0]
HLTRMakerAlg.HLTResultMTMaker.Serialiser    0     DEBUG Type xAOD::TrigCompositeContainer_v1#L1TAU
HLTRMakerAlg.HLTResultMTMaker.Serialiser    0     DEBUG Transient type xAOD::TrigCompositeContainer persistent type xAOD::TrigCompositeContainer_v1 will be written to 1 result ROBFragments with IDs: [0]
HLTRMakerAlg.HLTResultMTMaker.Serialiser    0     DEBUG Type xAOD::TrigCompositeAuxContainer_v2#L1TAU.
HLTRMakerAlg.HLTResultMTMaker.Serialiser    0     DEBUG Transient type xAOD::TrigCompositeAuxContainer persistent type xAOD::TrigCompositeAuxContainer_v2 will be written to 1 result ROBFragments with IDs: [0]
HLTRMakerAlg.HLTResultMTMaker.Serialiser    0     DEBUG Type xAOD::TrigCompositeContainer_v1#Filter_Step1_etcut_0_from_L1EM
HLTRMakerAlg.HLTResultMTMaker.Serialiser    0     DEBUG Transient type xAOD::TrigCompositeContainer persistent type xAOD::TrigCompositeContainer_v1 will be written to 1 result ROBFragments with IDs: [0]
HLTRMakerAlg.HLTResultMTMaker.Serialiser    0     DEBUG Type xAOD::TrigCompositeAuxContainer_v2#Filter_Step1_etcut_0_from_L1EM.
HLTRMakerAlg.HLTResultMTMaker.Serialiser    0     DEBUG Transient type xAOD::TrigCompositeAuxContainer persistent type xAOD::TrigCompositeAuxContainer_v2 will be written to 1 result ROBFragments with IDs: [0]
HLTRMakerAlg.HLTResultMTMaker.Serialiser    0     DEBUG Type xAOD::TrigCompositeContainer_v1#L1EM
HLTRMakerAlg.HLTResultMTMaker.Serialiser    0     DEBUG Transient type xAOD::TrigCompositeContainer persistent type xAOD::TrigCompositeContainer_v1 will be written to 1 result ROBFragments with IDs: [0]
HLTRMakerAlg.HLTResultMTMaker.Serialiser    0     DEBUG Type xAOD::TrigCompositeAuxContainer_v2#L1EM.
HLTRMakerAlg.HLTResultMTMaker.Serialiser    0     DEBUG Transient type xAOD::TrigCompositeAuxContainer persistent type xAOD::TrigCompositeAuxContainer_v2 will be written to 1 result ROBFragments with IDs: [0]
HLTRMakerAlg.HLTResultMTMaker.Serialiser    0     DEBUG Type xAOD::TrigCompositeContainer_v1#L1MET
HLTRMakerAlg.HLTResultMTMaker.Serialiser    0     DEBUG Transient type xAOD::TrigCompositeContainer persistent type xAOD::TrigCompositeContainer_v1 will be written to 1 result ROBFragments with IDs: [0]
HLTRMakerAlg.HLTResultMTMaker.Serialiser    0     DEBUG Type xAOD::TrigCompositeAuxContainer_v2#L1MET.
HLTRMakerAlg.HLTResultMTMaker.Serialiser    0     DEBUG Transient type xAOD::TrigCompositeAuxContainer persistent type xAOD::TrigCompositeAuxContainer_v2 will be written to 1 result ROBFragments with IDs: [0]
HLTRMakerAlg.HLTResultMTMaker.Serialiser    0     DEBUG Type xAOD::TrigCompositeContainer_v1#TrigL2ElectronHypoAlgMT_from_l2ElectronViewsMaker_from_Filter_Step2_etcut_0_from_EleL2CaloHypo_from_fastCaloViewsMaker_from_Filter_Step1_etcut_0_from_L1EM
HLTRMakerAlg.HLTResultMTMaker.Serialiser    0     DEBUG Transient type xAOD::TrigCompositeContainer persistent type xAOD::TrigCompositeContainer_v1 will be written to 1 result ROBFragments with IDs: [0]
HLTRMakerAlg.HLTResultMTMaker.Serialiser    0     DEBUG Type xAOD::TrigCompositeAuxContainer_v2#TrigL2ElectronHypoAlgMT_from_l2ElectronViewsMaker_from_Filter_Step2_etcut_0_from_EleL2CaloHypo_from_fastCaloViewsMaker_from_Filter_Step1_etcut_0_from_L1EM.
HLTRMakerAlg.HLTResultMTMaker.Serialiser    0     DEBUG Transient type xAOD::TrigCompositeAuxContainer persistent type xAOD::TrigCompositeAuxContainer_v2 will be written to 1 result ROBFragments with IDs: [0]
HLTRMakerAlg.HLTResultMTMaker.Serialiser    0     DEBUG Type xAOD::TrigCompositeContainer_v1#RerunL1MU
HLTRMakerAlg.HLTResultMTMaker.Serialiser    0     DEBUG Transient type xAOD::TrigCompositeContainer persistent type xAOD::TrigCompositeContainer_v1 will be written to 1 result ROBFragments with IDs: [0]
HLTRMakerAlg.HLTResultMTMaker.Serialiser    0     DEBUG Type xAOD::TrigCompositeAuxContainer_v2#RerunL1MU.
HLTRMakerAlg.HLTResultMTMaker.Serialiser    0     DEBUG Transient type xAOD::TrigCompositeAuxContainer persistent type xAOD::TrigCompositeAuxContainer_v2 will be written to 1 result ROBFragments with IDs: [0]
HLTRMakerAlg.HLTResultMTMaker.Serialiser    0     DEBUG Type xAOD::TrigCompositeContainer_v1#pebInputMaker_pebtestone_from_Filter_Step3_pebtestone_0_from_TrigL2ElectronHypoAlgMT_from_l2ElectronViewsMaker_from_Filter_Step2_etcut_0_from_EleL2CaloHypo_from_fastCaloViewsMaker_from_Filter_Step1_etcut_0_from_L1EM
HLTRMakerAlg.HLTResultMTMaker.Serialiser    0     DEBUG Transient type xAOD::TrigCompositeContainer persistent type xAOD::TrigCompositeContainer_v1 will be written to 1 result ROBFragments with IDs: [0]
HLTRMakerAlg.HLTResultMTMaker.Serialiser    0     DEBUG Type xAOD::TrigCompositeAuxContainer_v2#pebInputMaker_pebtestone_from_Filter_Step3_pebtestone_0_from_TrigL2ElectronHypoAlgMT_from_l2ElectronViewsMaker_from_Filter_Step2_etcut_0_from_EleL2CaloHypo_from_fastCaloViewsMaker_from_Filter_Step1_etcut_0_from_L1EM.
HLTRMakerAlg.HLTResultMTMaker.Serialiser    0     DEBUG Transient type xAOD::TrigCompositeAuxContainer persistent type xAOD::TrigCompositeAuxContainer_v2 will be written to 1 result ROBFragments with IDs: [0]
HLTRMakerAlg.HLTResultMTMaker.Serialiser    0     DEBUG Type xAOD::TrigCompositeContainer_v1#Filter_Step3_pebtestone_0_from_TrigL2ElectronHypoAlgMT_from_l2ElectronViewsMaker_from_Filter_Step2_etcut_0_from_EleL2CaloHypo_from_fastCaloViewsMaker_from_Filter_Step1_etcut_0_from_L1EM
HLTRMakerAlg.HLTResultMTMaker.Serialiser    0     DEBUG Transient type xAOD::TrigCompositeContainer persistent type xAOD::TrigCompositeContainer_v1 will be written to 1 result ROBFragments with IDs: [0]
HLTRMakerAlg.HLTResultMTMaker.Serialiser    0     DEBUG Type xAOD::TrigCompositeAuxContainer_v2#Filter_Step3_pebtestone_0_from_TrigL2ElectronHypoAlgMT_from_l2ElectronViewsMaker_from_Filter_Step2_etcut_0_from_EleL2CaloHypo_from_fastCaloViewsMaker_from_Filter_Step1_etcut_0_from_L1EM.
HLTRMakerAlg.HLTResultMTMaker.Serialiser    0     DEBUG Transient type xAOD::TrigCompositeAuxContainer persistent type xAOD::TrigCompositeAuxContainer_v2 will be written to 1 result ROBFragments with IDs: [0]
HLTRMakerAlg.HLTResultMTMaker.Serialiser    0     DEBUG Type xAOD::TrigCompositeContainer_v1#RerunL1EM
HLTRMakerAlg.HLTResultMTMaker.Serialiser    0     DEBUG Transient type xAOD::TrigCompositeContainer persistent type xAOD::TrigCompositeContainer_v1 will be written to 1 result ROBFragments with IDs: [0]
HLTRMakerAlg.HLTResultMTMaker.Serialiser    0     DEBUG Type xAOD::TrigCompositeAuxContainer_v2#RerunL1EM.
HLTRMakerAlg.HLTResultMTMaker.Serialiser    0     DEBUG Transient type xAOD::TrigCompositeAuxContainer persistent type xAOD::TrigCompositeAuxContainer_v2 will be written to 1 result ROBFragments with IDs: [0]
HLTRMakerAlg.HLTResultMTMaker.Serialiser    0     DEBUG Type xAOD::TrigCompositeContainer_v1#Filter_Step3_pebtestthree_0_from_PEBInfoWriterAlg_dataScoutingElectronTest_from_pebInputMaker_dataScoutingElectronTest_from_Filter_Step3_dataScoutingElectronTest_0_from_TrigL2ElectronHypoAlgMT_from_l2ElectronViewsMaker_from_Filter_Step2_etcut_0_from_EleL2CaloHypo_from_fastCaloViewsMaker_from_Filter_Step1_etcut_0_from_L1EM
HLTRMakerAlg.HLTResultMTMaker.Serialiser    0     DEBUG Transient type xAOD::TrigCompositeContainer persistent type xAOD::TrigCompositeContainer_v1 will be written to 1 result ROBFragments with IDs: [0]
HLTRMakerAlg.HLTResultMTMaker.Serialiser    0     DEBUG Type xAOD::TrigCompositeAuxContainer_v2#Filter_Step3_pebtestthree_0_from_PEBInfoWriterAlg_dataScoutingElectronTest_from_pebInputMaker_dataScoutingElectronTest_from_Filter_Step3_dataScoutingElectronTest_0_from_TrigL2ElectronHypoAlgMT_from_l2ElectronViewsMaker_from_Filter_Step2_etcut_0_from_EleL2CaloHypo_from_fastCaloViewsMaker_from_Filter_Step1_etcut_0_from_L1EM.
HLTRMakerAlg.HLTResultMTMaker.Serialiser    0     DEBUG Transient type xAOD::TrigCompositeAuxContainer persistent type xAOD::TrigCompositeAuxContainer_v2 will be written to 1 result ROBFragments with IDs: [0]
HLTRMakerAlg.HLTResultMTMaker.Serialiser    0     DEBUG Type xAOD::TrigCompositeContainer_v1#fastCaloViewsMaker_from_Filter_Step1_etcut_0_from_L1EM
HLTRMakerAlg.HLTResultMTMaker.Serialiser    0     DEBUG Transient type xAOD::TrigCompositeContainer persistent type xAOD::TrigCompositeContainer_v1 will be written to 1 result ROBFragments with IDs: [0]
HLTRMakerAlg.HLTResultMTMaker.Serialiser    0     DEBUG Type xAOD::TrigCompositeAuxContainer_v2#fastCaloViewsMaker_from_Filter_Step1_etcut_0_from_L1EM.
HLTRMakerAlg.HLTResultMTMaker.Serialiser    0     DEBUG Transient type xAOD::TrigCompositeAuxContainer persistent type xAOD::TrigCompositeAuxContainer_v2 will be written to 1 result ROBFragments with IDs: [0]
HLTRMakerAlg.HLTResultMTMaker.Serialiser    0     DEBUG Type xAOD::TrigCompositeContainer_v1#pebInputMaker_dataScoutingElectronTest_from_Filter_Step3_dataScoutingElectronTest_0_from_TrigL2ElectronHypoAlgMT_from_l2ElectronViewsMaker_from_Filter_Step2_etcut_0_from_EleL2CaloHypo_from_fastCaloViewsMaker_from_Filter_Step1_etcut_0_from_L1EM
HLTRMakerAlg.HLTResultMTMaker.Serialiser    0     DEBUG Transient type xAOD::TrigCompositeContainer persistent type xAOD::TrigCompositeContainer_v1 will be written to 1 result ROBFragments with IDs: [0]
HLTRMakerAlg.HLTResultMTMaker.Serialiser    0     DEBUG Type xAOD::TrigCompositeAuxContainer_v2#pebInputMaker_dataScoutingElectronTest_from_Filter_Step3_dataScoutingElectronTest_0_from_TrigL2ElectronHypoAlgMT_from_l2ElectronViewsMaker_from_Filter_Step2_etcut_0_from_EleL2CaloHypo_from_fastCaloViewsMaker_from_Filter_Step1_etcut_0_from_L1EM.
HLTRMakerAlg.HLTResultMTMaker.Serialiser    0     DEBUG Transient type xAOD::TrigCompositeAuxContainer persistent type xAOD::TrigCompositeAuxContainer_v2 will be written to 1 result ROBFragments with IDs: [0]
HLTRMakerAlg.HLTResultMTMaker.Serialiser    0     DEBUG Type xAOD::TrigCompositeContainer_v1#PEBInfoWriterAlg_pebtestone_from_pebInputMaker_pebtestone_from_Filter_Step3_pebtestone_0_from_TrigL2ElectronHypoAlgMT_from_l2ElectronViewsMaker_from_Filter_Step2_etcut_0_from_EleL2CaloHypo_from_fastCaloViewsMaker_from_Filter_Step1_etcut_0_from_L1EM
HLTRMakerAlg.HLTResultMTMaker.Serialiser    0     DEBUG Transient type xAOD::TrigCompositeContainer persistent type xAOD::TrigCompositeContainer_v1 will be written to 1 result ROBFragments with IDs: [0]
HLTRMakerAlg.HLTResultMTMaker.Serialiser    0     DEBUG Type xAOD::TrigCompositeAuxContainer_v2#PEBInfoWriterAlg_pebtestone_from_pebInputMaker_pebtestone_from_Filter_Step3_pebtestone_0_from_TrigL2ElectronHypoAlgMT_from_l2ElectronViewsMaker_from_Filter_Step2_etcut_0_from_EleL2CaloHypo_from_fastCaloViewsMaker_from_Filter_Step1_etcut_0_from_L1EM.
HLTRMakerAlg.HLTResultMTMaker.Serialiser    0     DEBUG Transient type xAOD::TrigCompositeAuxContainer persistent type xAOD::TrigCompositeAuxContainer_v2 will be written to 1 result ROBFragments with IDs: [0]
HLTRMakerAlg.HLTResultMTMaker.Serialiser    0     DEBUG Type xAOD::TrigCompositeContainer_v1#EleL2CaloHypo_from_fastCaloViewsMaker_from_Filter_Step1_etcut_0_from_L1EM
HLTRMakerAlg.HLTResultMTMaker.Serialiser    0     DEBUG Transient type xAOD::TrigCompositeContainer persistent type xAOD::TrigCompositeContainer_v1 will be written to 1 result ROBFragments with IDs: [0]
HLTRMakerAlg.HLTResultMTMaker.Serialiser    0     DEBUG Type xAOD::TrigCompositeAuxContainer_v2#EleL2CaloHypo_from_fastCaloViewsMaker_from_Filter_Step1_etcut_0_from_L1EM.
HLTRMakerAlg.HLTResultMTMaker.Serialiser    0     DEBUG Transient type xAOD::TrigCompositeAuxContainer persistent type xAOD::TrigCompositeAuxContainer_v2 will be written to 1 result ROBFragments with IDs: [0]
HLTRMakerAlg.HLTResultMTMaker.Serialiser    0     DEBUG Type xAOD::TrigCompositeContainer_v1#Filter_Step3_dataScoutingElectronTest_0_from_TrigL2ElectronHypoAlgMT_from_l2ElectronViewsMaker_from_Filter_Step2_etcut_0_from_EleL2CaloHypo_from_fastCaloViewsMaker_from_Filter_Step1_etcut_0_from_L1EM
HLTRMakerAlg.HLTResultMTMaker.Serialiser    0     DEBUG Transient type xAOD::TrigCompositeContainer persistent type xAOD::TrigCompositeContainer_v1 will be written to 1 result ROBFragments with IDs: [0]
HLTRMakerAlg.HLTResultMTMaker.Serialiser    0     DEBUG Type xAOD::TrigCompositeAuxContainer_v2#Filter_Step3_dataScoutingElectronTest_0_from_TrigL2ElectronHypoAlgMT_from_l2ElectronViewsMaker_from_Filter_Step2_etcut_0_from_EleL2CaloHypo_from_fastCaloViewsMaker_from_Filter_Step1_etcut_0_from_L1EM.
HLTRMakerAlg.HLTResultMTMaker.Serialiser    0     DEBUG Transient type xAOD::TrigCompositeAuxContainer persistent type xAOD::TrigCompositeAuxContainer_v2 will be written to 1 result ROBFragments with IDs: [0]
HLTRMakerAlg.HLTResultMTMaker.Serialiser    0     DEBUG Type xAOD::TrigCompositeContainer_v1#Filter_Step2_etcut_0_from_EleL2CaloHypo_from_fastCaloViewsMaker_from_Filter_Step1_etcut_0_from_L1EM
HLTRMakerAlg.HLTResultMTMaker.Serialiser    0     DEBUG Transient type xAOD::TrigCompositeContainer persistent type xAOD::TrigCompositeContainer_v1 will be written to 1 result ROBFragments with IDs: [0]
HLTRMakerAlg.HLTResultMTMaker.Serialiser    0     DEBUG Type xAOD::TrigCompositeAuxContainer_v2#Filter_Step2_etcut_0_from_EleL2CaloHypo_from_fastCaloViewsMaker_from_Filter_Step1_etcut_0_from_L1EM.
HLTRMakerAlg.HLTResultMTMaker.Serialiser    0     DEBUG Transient type xAOD::TrigCompositeAuxContainer persistent type xAOD::TrigCompositeAuxContainer_v2 will be written to 1 result ROBFragments with IDs: [0]
HLTRMakerAlg.HLTResultMTMaker.Serialiser    0     DEBUG Type xAOD::TrigCompositeContainer_v1#L1J
HLTRMakerAlg.HLTResultMTMaker.Serialiser    0     DEBUG Transient type xAOD::TrigCompositeContainer persistent type xAOD::TrigCompositeContainer_v1 will be written to 1 result ROBFragments with IDs: [0]
HLTRMakerAlg.HLTResultMTMaker.Serialiser    0     DEBUG Type xAOD::TrigCompositeAuxContainer_v2#L1J.
HLTRMakerAlg.HLTResultMTMaker.Serialiser    0     DEBUG Transient type xAOD::TrigCompositeAuxContainer persistent type xAOD::TrigCompositeAuxContainer_v2 will be written to 1 result ROBFragments with IDs: [0]
HLTRMakerAlg.HLTResultMTMaker.Serialiser    0     DEBUG Type xAOD::TrigCompositeContainer_v1#PEBInfoWriterAlg_dataScoutingElectronTest_from_pebInputMaker_dataScoutingElectronTest_from_Filter_Step3_dataScoutingElectronTest_0_from_TrigL2ElectronHypoAlgMT_from_l2ElectronViewsMaker_from_Filter_Step2_etcut_0_from_EleL2CaloHypo_from_fastCaloViewsMaker_from_Filter_Step1_etcut_0_from_L1EM
HLTRMakerAlg.HLTResultMTMaker.Serialiser    0     DEBUG Transient type xAOD::TrigCompositeContainer persistent type xAOD::TrigCompositeContainer_v1 will be written to 1 result ROBFragments with IDs: [0]
HLTRMakerAlg.HLTResultMTMaker.Serialiser    0     DEBUG Type xAOD::TrigCompositeAuxContainer_v2#PEBInfoWriterAlg_dataScoutingElectronTest_from_pebInputMaker_dataScoutingElectronTest_from_Filter_Step3_dataScoutingElectronTest_0_from_TrigL2ElectronHypoAlgMT_from_l2ElectronViewsMaker_from_Filter_Step2_etcut_0_from_EleL2CaloHypo_from_fastCaloViewsMaker_from_Filter_Step1_etcut_0_from_L1EM.
HLTRMakerAlg.HLTResultMTMaker.Serialiser    0     DEBUG Transient type xAOD::TrigCompositeAuxContainer persistent type xAOD::TrigCompositeAuxContainer_v2 will be written to 1 result ROBFragments with IDs: [0]
HLTRMakerAlg.HLTResultMTMaker.Serialiser    0     DEBUG Type xAOD::TrigEMClusterContainer_v1#HLT_L2CaloEMClusters
HLTRMakerAlg.HLTResultMTMaker.Serialiser    0     DEBUG Transient type xAOD::TrigEMClusterContainer persistent type xAOD::TrigEMClusterContainer_v1 will be written to 1 result ROBFragments with IDs: [0]
HLTRMakerAlg.HLTResultMTMaker.Serialiser    0     DEBUG Type xAOD::TrigEMClusterAuxContainer_v2#HLT_L2CaloEMClustersAux.RoIword.clusterQuality.e233.e237.e277.e2tsts1.ehad1.emaxs1.energy.energySample.et.eta.eta1.fracs1.nCells.phi.rawEnergy.rawEnergySample.rawEt.rawEta.rawPhi.viewIndex.weta2.wstot
HLTRMakerAlg.HLTResultMTMaker.Serialiser    0     DEBUG Transient type xAOD::TrigEMClusterAuxContainer persistent type xAOD::TrigEMClusterAuxContainer_v2 will be written to 1 result ROBFragments with IDs: [0]
HLTRMakerAlg.HLTResultMTMaker.Serialiser    0     DEBUG Type xAOD::TrigElectronContainer_v1#HLT_L2Electrons
HLTRMakerAlg.HLTResultMTMaker.Serialiser    0     DEBUG Transient type xAOD::TrigElectronContainer persistent type xAOD::TrigElectronContainer_v1 will be written to 2 result ROBFragments with IDs: [0, 3]
HLTRMakerAlg.HLTResultMTMaker.Serialiser    0     DEBUG Type xAOD::TrigElectronAuxContainer_v1#HLT_L2ElectronsAux.pt.eta.phi.rawEnergy.rawEt.rawEta.nCells.energy.et.e237.e277.fracs1.weta2.ehad1.wstot
HLTRMakerAlg.HLTResultMTMaker.Serialiser    0     DEBUG Transient type xAOD::TrigElectronAuxContainer persistent type xAOD::TrigElectronAuxContainer_v1 will be written to 2 result ROBFragments with IDs: [0, 3]
HLTRMakerAlg.HLTResultMTMaker.StreamT...0   0     DEBUG Chain HLT_e5_etcut_dataScoutingElectronTest ID#1523191700 adds PEBInfo ROBs = [0x7c0003], SubDets = [] to stream physics_dataScoutingElectronTest
HLTRMakerAlg.HLTResultMTMaker.StreamT...0   0     DEBUG Chain HLT_e3_etcut_dataScoutingElectronTest_pebtestthree ID#2070680980 adds PEBInfo ROBs = [0x42002e, 0x420060, 0x420064, 0x7c0003], SubDets = [] to stream physics_DSElectronWithPEB
HLTRMakerAlg.HLTResultMTMaker.StreamT...0   0     DEBUG Chain HLT_e7_etcut_pebtestone ID#2670063038 adds PEBInfo ROBs = [0x42002e, 0x420060, 0x420064, 0x7c0000], SubDets = [] to stream physics_pebtestone
--> Stream tags  = {dataScoutingElectronTest, physics, obeysLB=1, robs=[0x007c0003 ], dets = []}
                   {DSElectronWithPEB, physics, obeysLB=1, robs=[0x0042002e 0x00420060 0x00420064 0x007c0003 ], dets = []}
                   {dataScoutingElectronTest, physics, obeysLB=1, robs=[0x007c0003 ], dets = []}
--> Payload size = {module 3: 717 words}
                   {module 0: 2569 words}
HLTRMakerAlg.HLTResultMTMaker.StreamT...1   0     DEBUG Chain HLT_e7_etcut_pebtestone ID#2670063038 adds PEBInfo ROBs = [0x42002e, 0x420060, 0x420064, 0x7c0000], SubDets = [] to stream physics_pebtestone
HLTRMakerAlg.HLTResultMTMaker.StreamT...1   0     DEBUG Chain HLT_e3_etcut_dataScoutingElectronTest_pebtestthree ID#2070680980 adds PEBInfo ROBs = [0x42002e, 0x420060, 0x420064, 0x7c0003], SubDets = [] to stream physics_DSElectronWithPEB
HLTRMakerAlg.HLTResultMTMaker.StreamT...1   0     DEBUG Chain HLT_e5_etcut_dataScoutingElectronTest ID#1523191700 adds PEBInfo ROBs = [0x7c0003], SubDets = [] to stream physics_dataScoutingElectronTest
--> Stream tags  = {Main, physics, obeysLB=1, robs=[], dets = []}
                   {pebtestone, physics, obeysLB=1, robs=[0x0042002e 0x00420060 0x00420064 0x007c0000 ], dets = []}
HLTRMakerAlg.HLTResultMTMaker.StreamT...1   0     DEBUG Chain HLT_e5_etcut_dataScoutingElectronTest ID#1523191700 adds PEBInfo ROBs = [0x7c0003], SubDets = [] to stream physics_dataScoutingElectronTest
HLTRMakerAlg.HLTResultMTMaker.StreamT...1   0     DEBUG Chain HLT_e3_etcut_dataScoutingElectronTest_pebtestthree ID#2070680980 adds PEBInfo ROBs = [0x42002e, 0x420060, 0x420064, 0x7c0003], SubDets = [] to stream physics_DSElectronWithPEB
HLTRMakerAlg.HLTResultMTMaker.StreamT...1   0     DEBUG Chain HLT_e7_etcut_pebtestone ID#2670063038 adds PEBInfo ROBs = [0x42002e, 0x420060, 0x420064, 0x7c0000], SubDets = [] to stream physics_pebtestone
--> Stream tags  = {dataScoutingElectronTest, physics, obeysLB=1, robs=[0x007c0003 ], dets = []}
                   {Main, physics, obeysLB=1, robs=[], dets = []}
                   {DSElectronWithPEB, physics, obeysLB=1, robs=[0x0042002e 0x00420060 0x00420064 0x007c0003 ], dets = []}
                   {dataScoutingElectronTest, physics, obeysLB=1, robs=[0x007c0003 ], dets = []}
--> Payload size = {module 3: 1531 words}
                   {module 0: 3626 words}
HLTRMakerAlg.HLTResultMTMaker.StreamT...2   0     DEBUG Chain HLT_e7_etcut_pebtestone ID#2670063038 adds PEBInfo ROBs = [0x42002e, 0x420060, 0x420064, 0x7c0000], SubDets = [] to stream physics_pebtestone
HLTRMakerAlg.HLTResultMTMaker.StreamT...2   0     DEBUG Chain HLT_e3_etcut_dataScoutingElectronTest_pebtestthree ID#2070680980 adds PEBInfo ROBs = [0x42002e, 0x420060, 0x420064, 0x7c0003], SubDets = [] to stream physics_DSElectronWithPEB
HLTRMakerAlg.HLTResultMTMaker.StreamT...2   0     DEBUG Chain HLT_e5_etcut_dataScoutingElectronTest ID#1523191700 adds PEBInfo ROBs = [0x7c0003], SubDets = [] to stream physics_dataScoutingElectronTest
--> Stream tags  = {Main, physics, obeysLB=1, robs=[], dets = []}
                   {pebtestone, physics, obeysLB=1, robs=[0x0042002e 0x00420060 0x00420064 0x007c0000 ], dets = []}
HLTRMakerAlg.HLTResultMTMaker.StreamT...2   0     DEBUG Chain HLT_e5_etcut_dataScoutingElectronTest ID#1523191700 adds PEBInfo ROBs = [0x7c0003], SubDets = [] to stream physics_dataScoutingElectronTest
HLTRMakerAlg.HLTResultMTMaker.StreamT...2   0     DEBUG Chain HLT_e3_etcut_dataScoutingElectronTest_pebtestthree ID#2070680980 adds PEBInfo ROBs = [0x42002e, 0x420060, 0x420064, 0x7c0003], SubDets = [] to stream physics_DSElectronWithPEB
HLTRMakerAlg.HLTResultMTMaker.StreamT...2   0     DEBUG Chain HLT_e7_etcut_pebtestone ID#2670063038 adds PEBInfo ROBs = [0x42002e, 0x420060, 0x420064, 0x7c0000], SubDets = [] to stream physics_pebtestone
--> Stream tags  = {dataScoutingElectronTest, physics, obeysLB=1, robs=[0x007c0003 ], dets = []}
                   {Main, physics, obeysLB=1, robs=[], dets = []}
                   {DSElectronWithPEB, physics, obeysLB=1, robs=[0x0042002e 0x00420060 0x00420064 0x007c0003 ], dets = []}
                   {dataScoutingElectronTest, physics, obeysLB=1, robs=[0x007c0003 ], dets = []}
--> Payload size = {module 3: 1420 words}
                   {module 0: 3677 words}
HLTRMakerAlg.HLTResultMTMaker.StreamT...3   0     DEBUG Chain HLT_e7_etcut_pebtestone ID#2670063038 adds PEBInfo ROBs = [0x42002e, 0x420060, 0x420064, 0x7c0000], SubDets = [] to stream physics_pebtestone
HLTRMakerAlg.HLTResultMTMaker.StreamT...3   0     DEBUG Chain HLT_e3_etcut_dataScoutingElectronTest_pebtestthree ID#2070680980 adds PEBInfo ROBs = [0x42002e, 0x420060, 0x420064, 0x7c0003], SubDets = [] to stream physics_DSElectronWithPEB
HLTRMakerAlg.HLTResultMTMaker.StreamT...3   0     DEBUG Chain HLT_e5_etcut_dataScoutingElectronTest ID#1523191700 adds PEBInfo ROBs = [0x7c0003], SubDets = [] to stream physics_dataScoutingElectronTest
--> Stream tags  = {Main, physics, obeysLB=1, robs=[], dets = []}

                   {pebtestone, physics, obeysLB=1, robs=[0x0042002e 0x00420060 0x00420064 0x007c0000 ], dets = []}
HLTRMakerAlg.HLTResultMTMaker.StreamT...3   0     DEBUG Chain HLT_e5_etcut_dataScoutingElectronTest ID#1523191700 adds PEBInfo ROBs = [0x7c0003], SubDets = [] to stream physics_dataScoutingElectronTest
HLTRMakerAlg.HLTResultMTMaker.StreamT...3   0     DEBUG Chain HLT_e3_etcut_dataScoutingElectronTest_pebtestthree ID#2070680980 adds PEBInfo ROBs = [0x42002e, 0x420060, 0x420064, 0x7c0003], SubDets = [] to stream physics_DSElectronWithPEB
HLTRMakerAlg.HLTResultMTMaker.StreamT...3   0     DEBUG Chain HLT_e7_etcut_pebtestone ID#2670063038 adds PEBInfo ROBs = [0x42002e, 0x420060, 0x420064, 0x7c0000], SubDets = [] to stream physics_pebtestone
--> Stream tags  = {dataScoutingElectronTest, physics, obeysLB=1, robs=[0x007c0003 ], dets = []}
                   {Main, physics, obeysLB=1, robs=[], dets = []}
                   {DSElectronWithPEB, physics, obeysLB=1, robs=[0x0042002e 0x00420060 0x00420064 0x007c0003 ], dets = []}
                   {dataScoutingElectronTest, physics, obeysLB=1, robs=[0x007c0003 ], dets = []}
--> Payload size = {module 3: 1753 words}
                   {module 0: 3848 words}
HLTRMakerAlg.HLTResultMTMaker.StreamT...4   0     DEBUG Chain HLT_e7_etcut_pebtestone ID#2670063038 adds PEBInfo ROBs = [0x42002e, 0x420060, 0x420064, 0x7c0000], SubDets = [] to stream physics_pebtestone
HLTRMakerAlg.HLTResultMTMaker.StreamT...4   0     DEBUG Chain HLT_e3_etcut_dataScoutingElectronTest_pebtestthree ID#2070680980 adds PEBInfo ROBs = [0x42002e, 0x420060, 0x420064, 0x7c0003], SubDets = [] to stream physics_DSElectronWithPEB

HLTRMakerAlg.HLTResultMTMaker.StreamT...4   0     DEBUG Chain HLT_e5_etcut_dataScoutingElectronTest ID#1523191700 adds PEBInfo ROBs = [0x7c0003], SubDets = [] to stream physics_dataScoutingElectronTest
HLTRMakerAlg.HLTResultMTMaker.StreamT...4   0     DEBUG Chain HLT_e3_etcut_dataScoutingElectronTest_pebtestthree ID#2070680980 adds PEBInfo ROBs = [0x42002e, 0x420060, 0x420064, 0x7c0003], SubDets = [] to stream physics_DSElectronWithPEB
HLTRMakerAlg.HLTResultMTMaker.StreamT...4   0     DEBUG Chain HLT_e7_etcut_pebtestone ID#2670063038 adds PEBInfo ROBs = [0x42002e, 0x420060, 0x420064, 0x7c0000], SubDets = [] to stream physics_pebtestone
--> Stream tags  = {dataScoutingElectronTest, physics, obeysLB=1, robs=[0x007c0003 ], dets = []}
                   {DSElectronWithPEB, physics, obeysLB=1, robs=[0x0042002e 0x00420060 0x00420064 0x007c0003 ], dets = []}
                   {dataScoutingElectronTest, physics, obeysLB=1, robs=[0x007c0003 ], dets = []}
--> Payload size = {module 3: 865 words}
                   {module 0: 2798 words}
HLTRMakerAlg.HLTResultMTMaker.StreamT...5   0     DEBUG Chain HLT_e7_etcut_pebtestone ID#2670063038 adds PEBInfo ROBs = [0x42002e, 0x420060, 0x420064, 0x7c0000], SubDets = [] to stream physics_pebtestone
HLTRMakerAlg.HLTResultMTMaker.StreamT...5   0     DEBUG Chain HLT_e3_etcut_dataScoutingElectronTest_pebtestthree ID#2070680980 adds PEBInfo ROBs = [0x42002e, 0x420060, 0x420064, 0x7c0003], SubDets = [] to stream physics_DSElectronWithPEB

HLTRMakerAlg.HLTResultMTMaker.StreamT...5   0     DEBUG Chain HLT_e5_etcut_dataScoutingElectronTest ID#1523191700 adds PEBInfo ROBs = [0x7c0003], SubDets = [] to stream physics_dataScoutingElectronTest
HLTRMakerAlg.HLTResultMTMaker.StreamT...5   0     DEBUG Chain HLT_e3_etcut_dataScoutingElectronTest_pebtestthree ID#2070680980 adds PEBInfo ROBs = [0x42002e, 0x420060, 0x420064, 0x7c0003], SubDets = [] to stream physics_DSElectronWithPEB
HLTRMakerAlg.HLTResultMTMaker.StreamT...5   0     DEBUG Chain HLT_e7_etcut_pebtestone ID#2670063038 adds PEBInfo ROBs = [0x42002e, 0x420060, 0x420064, 0x7c0000], SubDets = [] to stream physics_pebtestone
--> Stream tags  = {dataScoutingElectronTest, physics, obeysLB=1, robs=[0x007c0003 ], dets = []}
                   {DSElectronWithPEB, physics, obeysLB=1, robs=[0x0042002e 0x00420060 0x00420064 0x007c0003 ], dets = []}
                   {dataScoutingElectronTest, physics, obeysLB=1, robs=[0x007c0003 ], dets = []}
--> Payload size = {module 3: 3085 words}
                   {module 0: 5423 words}
HLTRMakerAlg.HLTResultMTMaker.StreamT...6   0     DEBUG Chain HLT_e7_etcut_pebtestone ID#2670063038 adds PEBInfo ROBs = [0x42002e, 0x420060, 0x420064, 0x7c0000], SubDets = [] to stream physics_pebtestone
HLTRMakerAlg.HLTResultMTMaker.StreamT...6   0     DEBUG Chain HLT_e3_etcut_dataScoutingElectronTest_pebtestthree ID#2070680980 adds PEBInfo ROBs = [0x42002e, 0x420060, 0x420064, 0x7c0003], SubDets = [] to stream physics_DSElectronWithPEB
HLTRMakerAlg.HLTResultMTMaker.StreamT...6   0     DEBUG Chain HLT_e5_etcut_dataScoutingElectronTest ID#1523191700 adds PEBInfo ROBs = [0x7c0003], SubDets = [] to stream physics_dataScoutingElectronTest
HLTRMakerAlg.HLTResultMTMaker.StreamT...6   0     DEBUG Chain HLT_e3_etcut_dataScoutingElectronTest_pebtestthree ID#2070680980 adds PEBInfo ROBs = [0x42002e, 0x420060, 0x420064, 0x7c0003], SubDets = [] to stream physics_DSElectronWithPEB
HLTRMakerAlg.HLTResultMTMaker.StreamT...6   0     DEBUG Chain HLT_e7_etcut_pebtestone ID#2670063038 adds PEBInfo ROBs = [0x42002e, 0x420060, 0x420064, 0x7c0000], SubDets = [] to stream physics_pebtestone
--> Stream tags  = {dataScoutingElectronTest, physics, obeysLB=1, robs=[0x007c0003 ], dets = []}
                   {DSElectronWithPEB, physics, obeysLB=1, robs=[0x0042002e 0x00420060 0x00420064 0x007c0003 ], dets = []}
                   {dataScoutingElectronTest, physics, obeysLB=1, robs=[0x007c0003 ], dets = []}
--> Payload size = {module 3: 606 words}
                   {module 0: 2458 words}
HLTRMakerAlg.HLTResultMTMaker.StreamT...7   0     DEBUG Chain HLT_e7_etcut_pebtestone ID#2670063038 adds PEBInfo ROBs = [0x42002e, 0x420060, 0x420064, 0x7c0000], SubDets = [] to stream physics_pebtestone
HLTRMakerAlg.HLTResultMTMaker.StreamT...7   0     DEBUG Chain HLT_e3_etcut_dataScoutingElectronTest_pebtestthree ID#2070680980 adds PEBInfo ROBs = [0x42002e, 0x420060, 0x420064, 0x7c0003], SubDets = [] to stream physics_DSElectronWithPEB
HLTRMakerAlg.HLTResultMTMaker.StreamT...7   0     DEBUG Chain HLT_e5_etcut_dataScoutingElectronTest ID#1523191700 adds PEBInfo ROBs = [0x7c0003], SubDets = [] to stream physics_dataScoutingElectronTest
HLTRMakerAlg.HLTResultMTMaker.StreamT...7   0     DEBUG Chain HLT_e3_etcut_dataScoutingElectronTest_pebtestthree ID#2070680980 adds PEBInfo ROBs = [0x42002e, 0x420060, 0x420064, 0x7c0003], SubDets = [] to stream physics_DSElectronWithPEB
HLTRMakerAlg.HLTResultMTMaker.StreamT...7   0     DEBUG Chain HLT_e7_etcut_pebtestone ID#2670063038 adds PEBInfo ROBs = [0x42002e, 0x420060, 0x420064, 0x7c0000], SubDets = [] to stream physics_pebtestone
--> Stream tags  = {dataScoutingElectronTest, physics, obeysLB=1, robs=[0x007c0003 ], dets = []}
                   {DSElectronWithPEB, physics, obeysLB=1, robs=[0x0042002e 0x00420060 0x00420064 0x007c0003 ], dets = []}
                   {dataScoutingElectronTest, physics, obeysLB=1, robs=[0x007c0003 ], dets = []}
--> Payload size = {module 3: 1198 words}
                   {module 0: 3212 words}
HLTRMakerAlg.HLTResultMTMaker.StreamT...8   0     DEBUG Chain HLT_e7_etcut_pebtestone ID#2670063038 adds PEBInfo ROBs = [0x42002e, 0x420060, 0x420064, 0x7c0000], SubDets = [] to stream physics_pebtestone
HLTRMakerAlg.HLTResultMTMaker.StreamT...8   0     DEBUG Chain HLT_e3_etcut_dataScoutingElectronTest_pebtestthree ID#2070680980 adds PEBInfo ROBs = [0x42002e, 0x420060, 0x420064, 0x7c0003], SubDets = [] to stream physics_DSElectronWithPEB
HLTRMakerAlg.HLTResultMTMaker.StreamT...8   0     DEBUG Chain HLT_e5_etcut_dataScoutingElectronTest ID#1523191700 adds PEBInfo ROBs = [0x7c0003], SubDets = [] to stream physics_dataScoutingElectronTest
--> Stream tags  = {Main, physics, obeysLB=1, robs=[], dets = []}
                   {pebtestone, physics, obeysLB=1, robs=[0x0042002e 0x00420060 0x00420064 0x007c0000 ], dets = []}
HLTRMakerAlg.HLTResultMTMaker.StreamT...8   0     DEBUG Chain HLT_e5_etcut_dataScoutingElectronTest ID#1523191700 adds PEBInfo ROBs = [0x7c0003], SubDets = [] to stream physics_dataScoutingElectronTest
HLTRMakerAlg.HLTResultMTMaker.StreamT...8   0     DEBUG Chain HLT_e3_etcut_dataScoutingElectronTest_pebtestthree ID#2070680980 adds PEBInfo ROBs = [0x42002e, 0x420060, 0x420064, 0x7c0003], SubDets = [] to stream physics_DSElectronWithPEB
HLTRMakerAlg.HLTResultMTMaker.StreamT...8   0     DEBUG Chain HLT_e7_etcut_pebtestone ID#2670063038 adds PEBInfo ROBs = [0x42002e, 0x420060, 0x420064, 0x7c0000], SubDets = [] to stream physics_pebtestone
--> Stream tags  = {dataScoutingElectronTest, physics, obeysLB=1, robs=[0x007c0003 ], dets = []}
                   {Main, physics, obeysLB=1, robs=[], dets = []}
                   {DSElectronWithPEB, physics, obeysLB=1, robs=[0x0042002e 0x00420060 0x00420064 0x007c0003 ], dets = []}
                   {dataScoutingElectronTest, physics, obeysLB=1, robs=[0x007c0003 ], dets = []}
--> Payload size = {module 3: 754 words}
                   {module 0: 2687 words}
--> Payload size = {module 3: 152 words}
                   {module 0: 1902 words}
HLTRMakerAlg.HLTResultMTMaker.StreamT...10  0     DEBUG Chain HLT_e7_etcut_pebtestone ID#2670063038 adds PEBInfo ROBs = [0x42002e, 0x420060, 0x420064, 0x7c0000], SubDets = [] to stream physics_pebtestone
HLTRMakerAlg.HLTResultMTMaker.StreamT...10  0     DEBUG Chain HLT_e3_etcut_dataScoutingElectronTest_pebtestthree ID#2070680980 adds PEBInfo ROBs = [0x42002e, 0x420060, 0x420064, 0x7c0003], SubDets = [] to stream physics_DSElectronWithPEB
HLTRMakerAlg.HLTResultMTMaker.StreamT...10  0     DEBUG Chain HLT_e5_etcut_dataScoutingElectronTest ID#1523191700 adds PEBInfo ROBs = [0x7c0003], SubDets = [] to stream physics_dataScoutingElectronTest
--> Stream tags  = {Main, physics, obeysLB=1, robs=[], dets = []}
                   {pebtestone, physics, obeysLB=1, robs=[0x0042002e 0x00420060 0x00420064 0x007c0000 ], dets = []}
HLTRMakerAlg.HLTResultMTMaker.StreamT...10  0     DEBUG Chain HLT_e5_etcut_dataScoutingElectronTest ID#1523191700 adds PEBInfo ROBs = [0x7c0003], SubDets = [] to stream physics_dataScoutingElectronTest
HLTRMakerAlg.HLTResultMTMaker.StreamT...10  0     DEBUG Chain HLT_e3_etcut_dataScoutingElectronTest_pebtestthree ID#2070680980 adds PEBInfo ROBs = [0x42002e, 0x420060, 0x420064, 0x7c0003], SubDets = [] to stream physics_DSElectronWithPEB
HLTRMakerAlg.HLTResultMTMaker.StreamT...10  0     DEBUG Chain HLT_e7_etcut_pebtestone ID#2670063038 adds PEBInfo ROBs = [0x42002e, 0x420060, 0x420064, 0x7c0000], SubDets = [] to stream physics_pebtestone
--> Stream tags  = {dataScoutingElectronTest, physics, obeysLB=1, robs=[0x007c0003 ], dets = []}
                   {Main, physics, obeysLB=1, robs=[], dets = []}
                   {DSElectronWithPEB, physics, obeysLB=1, robs=[0x0042002e 0x00420060 0x00420064 0x007c0003 ], dets = []}
                   {dataScoutingElectronTest, physics, obeysLB=1, robs=[0x007c0003 ], dets = []}
--> Payload size = {module 3: 1827 words}
                   {module 0: 3922 words}
HLTRMakerAlg.HLTResultMTMaker.StreamT...11  0     DEBUG Chain HLT_e3_etcut_dataScoutingElectronTest_pebtestthree ID#2070680980 adds PEBInfo ROBs = [0x42002e, 0x420060, 0x420064, 0x7c0003], SubDets = [] to stream physics_DSElectronWithPEB
HLTRMakerAlg.HLTResultMTMaker.StreamT...11  0     DEBUG Chain HLT_e5_etcut_dataScoutingElectronTest ID#1523191700 adds PEBInfo ROBs = [0x7c0003], SubDets = [] to stream physics_dataScoutingElectronTest
--> Stream tags  = {DSElectronWithPEB, physics, obeysLB=1, robs=[0x0042002e 0x00420060 0x00420064 0x007c0003 ], dets = []}
                   {dataScoutingElectronTest, physics, obeysLB=1, robs=[0x007c0003 ], dets = []}
--> Payload size = {module 3: 532 words}
                   {module 0: 2384 words}
HLTRMakerAlg.HLTResultMTMaker.StreamT...12  0     DEBUG Chain HLT_e7_etcut_pebtestone ID#2670063038 adds PEBInfo ROBs = [0x42002e, 0x420060, 0x420064, 0x7c0000], SubDets = [] to stream physics_pebtestone
HLTRMakerAlg.HLTResultMTMaker.StreamT...12  0     DEBUG Chain HLT_e3_etcut_dataScoutingElectronTest_pebtestthree ID#2070680980 adds PEBInfo ROBs = [0x42002e, 0x420060, 0x420064, 0x7c0003], SubDets = [] to stream physics_DSElectronWithPEB
HLTRMakerAlg.HLTResultMTMaker.StreamT...12  0     DEBUG Chain HLT_e5_etcut_dataScoutingElectronTest ID#1523191700 adds PEBInfo ROBs = [0x7c0003], SubDets = [] to stream physics_dataScoutingElectronTest
HLTRMakerAlg.HLTResultMTMaker.StreamT...12  0     DEBUG Chain HLT_e3_etcut_dataScoutingElectronTest_pebtestthree ID#2070680980 adds PEBInfo ROBs = [0x42002e, 0x420060, 0x420064, 0x7c0003], SubDets = [] to stream physics_DSElectronWithPEB
HLTRMakerAlg.HLTResultMTMaker.StreamT...12  0     DEBUG Chain HLT_e7_etcut_pebtestone ID#2670063038 adds PEBInfo ROBs = [0x42002e, 0x420060, 0x420064, 0x7c0000], SubDets = [] to stream physics_pebtestone
--> Stream tags  = {dataScoutingElectronTest, physics, obeysLB=1, robs=[0x007c0003 ], dets = []}
                   {Main, physics, obeysLB=1, robs=[], dets = []}
                   {DSElectronWithPEB, physics, obeysLB=1, robs=[0x0042002e 0x00420060 0x00420064 0x007c0003 ], dets = []}
                   {dataScoutingElectronTest, physics, obeysLB=1, robs=[0x007c0003 ], dets = []}
--> Payload size = {module 3: 2456 words}
                   {module 0: 4875 words}
HLTRMakerAlg.HLTResultMTMaker.StreamT...13  0     DEBUG Chain HLT_e7_etcut_pebtestone ID#2670063038 adds PEBInfo ROBs = [0x42002e, 0x420060, 0x420064, 0x7c0000], SubDets = [] to stream physics_pebtestone
HLTRMakerAlg.HLTResultMTMaker.StreamT...13  0     DEBUG Chain HLT_e3_etcut_dataScoutingElectronTest_pebtestthree ID#2070680980 adds PEBInfo ROBs = [0x42002e, 0x420060, 0x420064, 0x7c0003], SubDets = [] to stream physics_DSElectronWithPEB
HLTRMakerAlg.HLTResultMTMaker.StreamT...13  0     DEBUG Chain HLT_e5_etcut_dataScoutingElectronTest ID#1523191700 adds PEBInfo ROBs = [0x7c0003], SubDets = [] to stream physics_dataScoutingElectronTest
--> Stream tags  = {Main, physics, obeysLB=1, robs=[], dets = []}
                   {pebtestone, physics, obeysLB=1, robs=[0x0042002e 0x00420060 0x00420064 0x007c0000 ], dets = []}
HLTRMakerAlg.HLTResultMTMaker.StreamT...13  0     DEBUG Chain HLT_e5_etcut_dataScoutingElectronTest ID#1523191700 adds PEBInfo ROBs = [0x7c0003], SubDets = [] to stream physics_dataScoutingElectronTest
HLTRMakerAlg.HLTResultMTMaker.StreamT...13  0     DEBUG Chain HLT_e3_etcut_dataScoutingElectronTest_pebtestthree ID#2070680980 adds PEBInfo ROBs = [0x42002e, 0x420060, 0x420064, 0x7c0003], SubDets = [] to stream physics_DSElectronWithPEB
HLTRMakerAlg.HLTResultMTMaker.StreamT...13  0     DEBUG Chain HLT_e7_etcut_pebtestone ID#2670063038 adds PEBInfo ROBs = [0x42002e, 0x420060, 0x420064, 0x7c0000], SubDets = [] to stream physics_pebtestone
--> Stream tags  = {dataScoutingElectronTest, physics, obeysLB=1, robs=[0x007c0003 ], dets = []}
                   {Main, physics, obeysLB=1, robs=[], dets = []}
                   {DSElectronWithPEB, physics, obeysLB=1, robs=[0x0042002e 0x00420060 0x00420064 0x007c0003 ], dets = []}

                   {dataScoutingElectronTest, physics, obeysLB=1, robs=[0x007c0003 ], dets = []}
--> Payload size = {module 3: 1605 words}
                   {module 0: 3538 words}
HLTRMakerAlg.HLTResultMTMaker.StreamT...14  0     DEBUG Chain HLT_e3_etcut_dataScoutingElectronTest_pebtestthree ID#2070680980 adds PEBInfo ROBs = [0x42002e, 0x420060, 0x420064, 0x7c0003], SubDets = [] to stream physics_DSElectronWithPEB
HLTRMakerAlg.HLTResultMTMaker.StreamT...14  0     DEBUG Chain HLT_e5_etcut_dataScoutingElectronTest ID#1523191700 adds PEBInfo ROBs = [0x7c0003], SubDets = [] to stream physics_dataScoutingElectronTest
--> Stream tags  = {DSElectronWithPEB, physics, obeysLB=1, robs=[0x0042002e 0x00420060 0x00420064 0x007c0003 ], dets = []}
                   {dataScoutingElectronTest, physics, obeysLB=1, robs=[0x007c0003 ], dets = []}
--> Payload size = {module 3: 569 words}
                   {module 0: 2421 words}
--> Payload size = {module 3: 152 words}
                   {module 0: 1902 words}
HLTRMakerAlg.HLTResultMTMaker.StreamT...16  0     DEBUG Chain HLT_e3_etcut_dataScoutingElectronTest_pebtestthree ID#2070680980 adds PEBInfo ROBs = [0x42002e, 0x420060, 0x420064, 0x7c0003], SubDets = [] to stream physics_DSElectronWithPEB
--> Stream tags  = {DSElectronWithPEB, physics, obeysLB=1, robs=[0x0042002e 0x00420060 0x00420064 0x007c0003 ], dets = []}
--> Payload size = {module 3: 717 words}
                   {module 0: 2569 words}
HLTRMakerAlg.HLTResultMTMaker.StreamT...17  0     DEBUG Chain HLT_e7_etcut_pebtestone ID#2670063038 adds PEBInfo ROBs = [0x42002e, 0x420060, 0x420064, 0x7c0000], SubDets = [] to stream physics_pebtestone
HLTRMakerAlg.HLTResultMTMaker.StreamT...17  0     DEBUG Chain HLT_e3_etcut_dataScoutingElectronTest_pebtestthree ID#2070680980 adds PEBInfo ROBs = [0x42002e, 0x420060, 0x420064, 0x7c0003], SubDets = [] to stream physics_DSElectronWithPEB
HLTRMakerAlg.HLTResultMTMaker.StreamT...17  0     DEBUG Chain HLT_e5_etcut_dataScoutingElectronTest ID#1523191700 adds PEBInfo ROBs = [0x7c0003], SubDets = [] to stream physics_dataScoutingElectronTest
HLTRMakerAlg.HLTResultMTMaker.StreamT...17  0     DEBUG Chain HLT_e3_etcut_dataScoutingElectronTest_pebtestthree ID#2070680980 adds PEBInfo ROBs = [0x42002e, 0x420060, 0x420064, 0x7c0003], SubDets = [] to stream physics_DSElectronWithPEB
HLTRMakerAlg.HLTResultMTMaker.StreamT...17  0     DEBUG Chain HLT_e7_etcut_pebtestone ID#2670063038 adds PEBInfo ROBs = [0x42002e, 0x420060, 0x420064, 0x7c0000], SubDets = [] to stream physics_pebtestone
--> Stream tags  = {dataScoutingElectronTest, physics, obeysLB=1, robs=[0x007c0003 ], dets = []}
                   {Main, physics, obeysLB=1, robs=[], dets = []}
                   {DSElectronWithPEB, physics, obeysLB=1, robs=[0x0042002e 0x00420060 0x00420064 0x007c0003 ], dets = []}

                   {dataScoutingElectronTest, physics, obeysLB=1, robs=[0x007c0003 ], dets = []}
--> Payload size = {module 3: 1013 words}
                   {module 0: 2946 words}
--> Payload size = {module 3: 606 words}
                   {module 0: 2539 words}
HLTRMakerAlg.HLTResultMTMaker.StreamT...19  0     DEBUG Chain HLT_e7_etcut_pebtestone ID#2670063038 adds PEBInfo ROBs = [0x42002e, 0x420060, 0x420064, 0x7c0000], SubDets = [] to stream physics_pebtestone
HLTRMakerAlg.HLTResultMTMaker.StreamT...19  0     DEBUG Chain HLT_e3_etcut_dataScoutingElectronTest_pebtestthree ID#2070680980 adds PEBInfo ROBs = [0x42002e, 0x420060, 0x420064, 0x7c0003], SubDets = [] to stream physics_DSElectronWithPEB
HLTRMakerAlg.HLTResultMTMaker.StreamT...19  0     DEBUG Chain HLT_e5_etcut_dataScoutingElectronTest ID#1523191700 adds PEBInfo ROBs = [0x7c0003], SubDets = [] to stream physics_dataScoutingElectronTest
--> Stream tags  = {Main, physics, obeysLB=1, robs=[], dets = []}

                   {pebtestone, physics, obeysLB=1, robs=[0x0042002e 0x00420060 0x00420064 0x007c0000 ], dets = []}
HLTRMakerAlg.HLTResultMTMaker.StreamT...19  0     DEBUG Chain HLT_e5_etcut_dataScoutingElectronTest ID#1523191700 adds PEBInfo ROBs = [0x7c0003], SubDets = [] to stream physics_dataScoutingElectronTest
HLTRMakerAlg.HLTResultMTMaker.StreamT...19  0     DEBUG Chain HLT_e3_etcut_dataScoutingElectronTest_pebtestthree ID#2070680980 adds PEBInfo ROBs = [0x42002e, 0x420060, 0x420064, 0x7c0003], SubDets = [] to stream physics_DSElectronWithPEB
HLTRMakerAlg.HLTResultMTMaker.StreamT...19  0     DEBUG Chain HLT_e7_etcut_pebtestone ID#2670063038 adds PEBInfo ROBs = [0x42002e, 0x420060, 0x420064, 0x7c0000], SubDets = [] to stream physics_pebtestone
--> Stream tags  = {dataScoutingElectronTest, physics, obeysLB=1, robs=[0x007c0003 ], dets = []}
                   {Main, physics, obeysLB=1, robs=[], dets = []}
                   {DSElectronWithPEB, physics, obeysLB=1, robs=[0x0042002e 0x00420060 0x00420064 0x007c0003 ], dets = []}
                   {dataScoutingElectronTest, physics, obeysLB=1, robs=[0x007c0003 ], dets = []}
--> Payload size = {module 3: 2530 words}
                   {module 0: 4544 words}